<svg width="25" height="19" viewBox="0 0 25 19" fill="none" xmlns="http://www.w3.org/2000/svg">
<g clip-path="url(#clip0)">
<path d="M22.9297 0.021698H16.862C14.7743 0.021698 12.9601 1.46701 12.5043 3.50694C12.0443 1.46701 10.2344 0.021698 8.1467 0.021698H2.08333C0.93316 0.021698 0 0.954858 0 2.10503V12.7734C0 13.9236 0.93316 14.8568 2.08333 14.8568H5.97656C10.4123 14.8568 11.7361 15.9158 12.3698 18.112C12.4002 18.2335 12.5955 18.2335 12.6302 18.112C13.2682 15.9158 14.592 14.8568 19.0234 14.8568H22.9167C24.0668 14.8568 25 13.9236 25 12.7734V2.10937C25 0.963538 24.0755 0.0303786 22.9297 0.021698V0.021698ZM10.5035 11.5408C10.5035 11.6233 10.4384 11.6927 10.3516 11.6927H3.3941C3.31163 11.6927 3.24219 11.6276 3.24219 11.5408V10.5469C3.24219 10.4644 3.30729 10.395 3.3941 10.395H10.3559C10.4384 10.395 10.5078 10.4601 10.5078 10.5469V11.5408H10.5035ZM10.5035 8.89757C10.5035 8.98003 10.4384 9.04948 10.3516 9.04948H3.3941C3.31163 9.04948 3.24219 8.98437 3.24219 8.89757V7.90364C3.24219 7.82118 3.30729 7.75173 3.3941 7.75173H10.3559C10.4384 7.75173 10.5078 7.81684 10.5078 7.90364V8.89757H10.5035ZM10.5035 6.25434C10.5035 6.3368 10.4384 6.40625 10.3516 6.40625H3.3941C3.31163 6.40625 3.24219 6.34114 3.24219 6.25434V5.26041C3.24219 5.17795 3.30729 5.1085 3.3941 5.1085H10.3559C10.4384 5.1085 10.5078 5.17361 10.5078 5.26041V6.25434H10.5035ZM21.7578 11.5365C21.7578 11.6189 21.6927 11.6884 21.6059 11.6884H14.6484C14.566 11.6884 14.4965 11.6233 14.4965 11.5365V10.5425C14.4965 10.4601 14.5616 10.3906 14.6484 10.3906H21.6102C21.6927 10.3906 21.7622 10.4557 21.7622 10.5425V11.5365H21.7578ZM21.7578 8.89323C21.7578 8.97569 21.6927 9.04513 21.6059 9.04513H14.6484C14.566 9.04513 14.4965 8.98003 14.4965 8.89323V7.8993C14.4965 7.81684 14.5616 7.74739 14.6484 7.74739H21.6102C21.6927 7.74739 21.7622 7.8125 21.7622 7.8993V8.89323H21.7578ZM21.7578 6.25C21.7578 6.33246 21.6927 6.40191 21.6059 6.40191H14.6484C14.566 6.40191 14.4965 6.3368 14.4965 6.25V5.26041C14.4965 5.17795 14.5616 5.1085 14.6484 5.1085H21.6102C21.6927 5.1085 21.7622 5.17361 21.7622 5.26041V6.25H21.7578Z" fill="black"/>
</g>
<defs>
<clipPath id="clip0">
<rect width="25" height="18.2292" fill="white"/>
</clipPath>
</defs>
</svg>
